base_emp – Site web
…
Warning: le package 'stringr' a été compilé avec la version R 4.4.2

library(tidyr)

Warning: le package 'tidyr' a été compilé avec la version R 4.4.2

library(stringi)

emp_offers <- read_csv("data/emp_offers_fmt.tsv", show_col_types = FALSE)

# Avoir la liste des entreprises
distinct(emp_offers, entreprise, .keep_all = FALSE)

# A tibble: 801 × 1
   entreprise                   
   <chr>                        
 1 Safran                       
 2 Orano                        
 3 Cdiscount                    
 4 Docaposte                    
 5 LHH Recruitment Solutions    
 6 Assurances Crédit Mutuel  GIE
 7 Team.is                      
 8 Akkodis                      
 9 Reactis Services             
10 Solutec                      
# ℹ 791 more rows
…
